{
  "main": {
    "id": "d3b20960bcb7be17",
    "type": "split",
    "children": [
      {
        "id": "a4dc09fde6ec736f",
        "type": "tabs",
        "children": [
          {
            "id": "c8b3c8ecc3b53dd0",
            "type": "leaf",
            "state": {
              "type": "image",
              "state": {
                "file": "Pasted image 20230308202433.png"
              }
            }
          }
        ]
      }
    ],
    "direction": "vertical"
  },
  "left": {
    "id": "1aa0511bde8d5232",
    "type": "split",
    "children": [
      {
        "id": "05e8c8faa6db642e",
        "type": "tabs",
        "children": [
          {
            "id": "a12136f8b7b4a8d2",
            "type": "leaf",
            "state": {
              "type": "file-explorer",
              "state": {
                "sortOrder": "alphabetical"
              }
            }
          },
          {
            "id": "a23e54572b186080",
            "type": "leaf",
            "state": {
              "type": "search",
              "state": {
                "query": "",
                "matchingCase": false,
                "explainSearch": false,
                "collapseAll": false,
                "extraContext": false,
                "sortOrder": "alphabetical"
              }
            }
          },
          {
            "id": "5e9d1dba264ecdfc",
            "type": "leaf",
            "state": {
              "type": "starred",
              "state": {}
            }
          }
        ]
      }
    ],
    "direction": "horizontal",
    "width": 301.5
  },
  "right": {
    "id": "cbc9e100edd5e388",
    "type": "split",
    "children": [
      {
        "id": "ef73900abb4093d0",
        "type": "tabs",
        "children": [
          {
            "id": "ae8534766bd8a31d",
            "type": "leaf",
            "state": {
              "type": "backlink",
              "state": {
                "file": "Pasted image 20230308202433.png",
                "collapseAll": false,
                "extraContext": false,
                "sortOrder": "alphabetical",
                "showSearch": false,
                "searchQuery": "",
                "backlinkCollapsed": false,
                "unlinkedCollapsed": true
              }
            }
          },
          {
            "id": "972bbc47f6e3ace7",
            "type": "leaf",
            "state": {
              "type": "outgoing-link",
              "state": {
                "file": "Pasted image 20230308202433.png",
                "linksCollapsed": true,
                "unlinkedCollapsed": true
              }
            }
          },
          {
            "id": "0d342616d160ab53",
            "type": "leaf",
            "state": {
              "type": "tag",
              "state": {
                "sortOrder": "frequency",
                "useHierarchy": true
              }
            }
          },
          {
            "id": "1bdfca8ac0b63ef0",
            "type": "leaf",
            "state": {
              "type": "outline",
              "state": {
                "file": "Pasted image 20230308202433.png"
              }
            }
          }
        ],
        "currentTab": 3
      }
    ],
    "direction": "horizontal",
    "width": 300
  },
  "left-ribbon": {
    "hiddenItems": {
      "switcher:Open quick switcher": false,
      "graph:Open graph view": false,
      "canvas:Create new canvas": false,
      "daily-notes:Open today's daily note": false,
      "templates:Insert template": false,
      "command-palette:Open command palette": false
    }
  },
  "active": "c8b3c8ecc3b53dd0",
  "lastOpenFiles": [
    "Pasted image 20230321143518.png",
    "Pasted image 20230321154427.png",
    "Pasted image 20230308202433.png",
    "linux-grahics-stack-dri-stack.png",
    "NIR.md",
    "amd-mesa-driver-nir-pipeline.png",
    "Driver Dependent X (DDX).md",
    "Direct Rendering Management (DRM).md",
    "Direct Rendering Infrastructure (DRI).md",
    "WINE.md",
    "Untitled.canvas",
    "Mesa.md",
    "Linux Graphics Stack.md",
    "Kernal Mode Setting (KMS).md",
    "Input-Output Control (ioctl).md",
    "Gallium3D.md",
    "Wayland.md",
    "ioctl.md",
    "Wayland Protocol.md",
    "Tungsten Graphics Shader Infrastructure (TGSI).md",
    "Xlib.md",
    "mesa-glsl-shader-compilation-pipeline.png",
    "linux-graphics-stack-overview-flowchart.png",
    "linux-graphics-stack-legacy-ddx.png",
    "SPIR-V.md",
    "spir-v-ecosystem.png",
    "Pasted image 20230308001446.png",
    "Pasted image 20230307233131.png.md",
    "Pasted image 20230307233025.png.md",
    "!![[Pasted image 20230307232929.png.md",
    "![[Pasted image 20230307233009.png.md"
  ]
}